<?xml version="1.0"?>
<!DOCTYPE svg PUBLIC '-//W3C//DTD SVG 1.0//EN'
          'http://www.w3.org/TR/2001/REC-SVG-20010904/DTD/svg10.dtd'>
<svg xmlns:xlink="http://www.w3.org/1999/xlink" style="fill-opacity:1; color-rendering:auto; color-interpolation:auto; text-rendering:auto; stroke:black; stroke-linecap:square; stroke-miterlimit:10; shape-rendering:auto; stroke-opacity:1; fill:black; stroke-dasharray:none; font-weight:normal; stroke-width:1; font-family:'Dialog'; font-style:normal; stroke-linejoin:miter; font-size:12px; stroke-dashoffset:0; image-rendering:auto;" width="560" height="420" xmlns="http://www.w3.org/2000/svg"
><!--Generated by the Batik Graphics2D SVG Generator--><defs id="genericDefs"
  /><g
  ><defs id="defs1"
    ><clipPath clipPathUnits="userSpaceOnUse" id="clipPath1"
      ><path d="M0 0 L560 0 L560 420 L0 420 L0 0 Z"
      /></clipPath
      ><font horiz-adv-x="50.0" id="font1"
      ><font-face ascent="95.200005" descent="21.3" units-per-em="100" style="font-style:normal; font-family:Helvetica Neue; font-weight:normal;"
        /><missing-glyph horiz-adv-x="50.0" d="M40.9 66.6 L10.2 66.6 L10.2 4.7 L40.9 4.7 ZM46 71.2 L46 0.1 L5.1 0.1 L5.1 71.2 Z"
        /><glyph unicode="0" horiz-adv-x="55.6" d="M13.2 34.9 Q13.2 37.5 13.25 40.65 Q13.3 43.8 13.75 46.95 Q14.2 50.1 15.05 53.1 Q15.9 56.1 17.55 58.35 Q19.2 60.6 21.7 62 Q24.2 63.4 27.8 63.4 Q31.4 63.4 33.9 62 Q36.4 60.6 38.05 58.35 Q39.7 56.1 40.55 53.1 Q41.4 50.1 41.85 46.95 Q42.3 43.8 42.35 40.65 Q42.4 37.5 42.4 34.9 Q42.4 30.9 42.15 25.95 Q41.9 21 40.55 16.65 Q39.2 12.3 36.2 9.3 Q33.2 6.3 27.8 6.3 Q22.4 6.3 19.4 9.3 Q16.4 12.3 15.05 16.65 Q13.7 21 13.45 25.95 Q13.2 30.9 13.2 34.9 ZM4.2 34.8 Q4.2 30.9 4.4 26.7 Q4.6 22.5 5.4 18.5 Q6.2 14.5 7.7 10.95 Q9.2 7.4 11.8 4.7 Q14.4 2 18.35 0.45 Q22.3 -1.1 27.8 -1.1 Q33.4 -1.1 37.3 0.45 Q41.2 2 43.8 4.7 Q46.4 7.4 47.9 10.95 Q49.4 14.5 50.2 18.5 Q51 22.5 51.2 26.7 Q51.4 30.9 51.4 34.8 Q51.4 38.7 51.2 42.9 Q51 47.1 50.2 51.1 Q49.4 55.1 47.9 58.7 Q46.4 62.3 43.8 65 Q41.2 67.7 37.25 69.3 Q33.3 70.9 27.8 70.9 Q22.3 70.9 18.35 69.3 Q14.4 67.7 11.8 65 Q9.2 62.3 7.7 58.7 Q6.2 55.1 5.4 51.1 Q4.6 47.1 4.4 42.9 Q4.2 38.7 4.2 34.8 Z"
        /><glyph unicode="1" horiz-adv-x="55.6" d="M35.6 0 L35.6 70.9 L29.1 70.9 Q28.4 66.9 26.5 64.3 Q24.6 61.7 21.85 60.2 Q19.1 58.7 15.7 58.15 Q12.3 57.6 8.7 57.6 L8.7 50.8 L27.1 50.8 L27.1 0 Z"
        /><glyph unicode="2" horiz-adv-x="55.6" d="M4.4 45.8 L12.9 45.8 Q12.8 49 13.55 52.15 Q14.3 55.3 16 57.8 Q17.7 60.3 20.35 61.85 Q23 63.4 26.7 63.4 Q29.5 63.4 32 62.5 Q34.5 61.6 36.35 59.9 Q38.2 58.2 39.3 55.85 Q40.4 53.5 40.4 50.6 Q40.4 46.9 39.25 44.1 Q38.1 41.3 35.85 38.9 Q33.6 36.5 30.2 34.15 Q26.8 31.8 22.3 29 Q18.6 26.8 15.2 24.3 Q11.8 21.8 9.1 18.5 Q6.4 15.2 4.65 10.75 Q2.9 6.3 2.4 0 L48.7 0 L48.7 7.5 L12.3 7.5 Q12.9 10.8 14.85 13.35 Q16.8 15.9 19.55 18.1 Q22.3 20.3 25.6 22.25 Q28.9 24.2 32.2 26.2 Q35.5 28.3 38.6 30.6 Q41.7 32.9 44.1 35.75 Q46.5 38.6 47.95 42.2 Q49.4 45.8 49.4 50.5 Q49.4 55.5 47.65 59.3 Q45.9 63.1 42.9 65.65 Q39.9 68.2 35.85 69.55 Q31.8 70.9 27.2 70.9 Q21.6 70.9 17.2 69 Q12.8 67.1 9.85 63.75 Q6.9 60.4 5.5 55.8 Q4.1 51.2 4.4 45.8 Z"
        /><glyph unicode="3" horiz-adv-x="55.6" d="M21.8 40.5 L21.8 33.3 Q24.2 33.6 26.9 33.6 Q30.1 33.6 32.85 32.75 Q35.6 31.9 37.6 30.15 Q39.6 28.4 40.8 25.85 Q42 23.3 42 20 Q42 16.8 40.75 14.25 Q39.5 11.7 37.4 9.95 Q35.3 8.2 32.5 7.25 Q29.7 6.3 26.6 6.3 Q19.3 6.3 15.5 10.65 Q11.7 15 11.5 21.9 L3 21.9 Q2.9 16.4 4.55 12.1 Q6.2 7.8 9.3 4.85 Q12.4 1.9 16.8 0.4 Q21.2 -1.1 26.6 -1.1 Q31.6 -1.1 36.05 0.25 Q40.5 1.6 43.8 4.3 Q47.1 7 49.05 11.05 Q51 15.1 51 20.4 Q51 26.8 47.85 31.5 Q44.7 36.2 38.2 37.6 L38.2 37.8 Q42.4 39.7 45.2 43.4 Q48 47.1 48 51.9 Q48 56.8 46.35 60.4 Q44.7 64 41.8 66.3 Q38.9 68.6 34.95 69.75 Q31 70.9 26.4 70.9 Q21.1 70.9 17.05 69.2 Q13 67.5 10.3 64.5 Q7.6 61.5 6.15 57.3 Q4.7 53.1 4.5 48 L13 48 Q13 51.1 13.8 53.9 Q14.6 56.7 16.25 58.8 Q17.9 60.9 20.45 62.15 Q23 63.4 26.4 63.4 Q31.8 63.4 35.4 60.55 Q39 57.7 39 52 Q39 49.2 37.9 47 Q36.8 44.8 34.95 43.35 Q33.1 41.9 30.65 41.15 Q28.2 40.4 25.5 40.4 L23.7 40.4 Q23.2 40.4 22.7 40.4 Q22.3 40.4 21.8 40.5 Z"
        /><glyph unicode="4" horiz-adv-x="55.6" d="M33.9 24.1 L10.1 24.1 L33.7 58.8 L33.9 58.8 ZM41.9 24.1 L41.9 70.9 L35.1 70.9 L2.8 24.8 L2.8 16.6 L33.9 16.6 L33.9 0 L41.9 0 L41.9 16.6 L51.5 16.6 L51.5 24.1 Z"
        /><glyph unicode="5" horiz-adv-x="55.6" d="M47 62.2 L47 69.7 L12 69.7 L5.4 32.9 L12.7 32.5 Q15.2 35.5 18.45 37.35 Q21.7 39.2 25.9 39.2 Q29.5 39.2 32.45 38 Q35.4 36.8 37.5 34.65 Q39.6 32.5 40.75 29.55 Q41.9 26.6 41.9 23.1 Q41.9 18.9 40.7 15.75 Q39.5 12.6 37.45 10.5 Q35.4 8.4 32.65 7.35 Q29.9 6.3 26.9 6.3 Q23.7 6.3 21.05 7.25 Q18.4 8.2 16.45 9.95 Q14.5 11.7 13.35 14.05 Q12.2 16.4 12 19.1 L3.5 19.1 Q3.6 14.3 5.4 10.5 Q7.2 6.7 10.3 4.15 Q13.4 1.6 17.45 0.25 Q21.5 -1.1 26.1 -1.1 Q32.3 -1.1 36.95 0.85 Q41.6 2.8 44.7 6.1 Q47.8 9.4 49.35 13.65 Q50.9 17.9 50.9 22.4 Q50.9 28.5 49.1 33.05 Q47.3 37.6 44.2 40.65 Q41.1 43.7 36.9 45.2 Q32.7 46.7 28 46.7 Q24.4 46.7 20.75 45.45 Q17.1 44.2 14.8 41.6 L14.6 41.8 L18.4 62.2 Z"
        /><glyph unicode="6" horiz-adv-x="55.6" d="M41.4 52.8 L49.9 52.8 Q49.1 61.6 43.9 66.25 Q38.7 70.9 29.9 70.9 Q22.3 70.9 17.3 67.7 Q12.3 64.5 9.3 59.2 Q6.3 53.9 5.05 47.05 Q3.8 40.2 3.8 32.9 Q3.8 27.3 4.65 21.3 Q5.5 15.3 8.1 10.3 Q10.7 5.3 15.5 2.1 Q20.3 -1.1 28.2 -1.1 Q34.9 -1.1 39.45 1.15 Q44 3.4 46.75 6.85 Q49.5 10.3 50.7 14.5 Q51.9 18.7 51.9 22.6 Q51.9 27.5 50.4 31.7 Q48.9 35.9 46.15 39 Q43.4 42.1 39.35 43.85 Q35.3 45.6 30.2 45.6 Q24.4 45.6 19.95 43.4 Q15.5 41.2 12.5 36.3 L12.3 36.5 Q12.4 40.6 13.1 45.3 Q13.8 50 15.65 54.05 Q17.5 58.1 20.8 60.75 Q24.1 63.4 29.5 63.4 Q34.6 63.4 37.7 60.5 Q40.8 57.6 41.4 52.8 ZM28.6 38.1 Q32.2 38.1 34.9 36.8 Q37.6 35.5 39.4 33.35 Q41.2 31.2 42.05 28.25 Q42.9 25.3 42.9 22 Q42.9 18.9 41.95 16.05 Q41 13.2 39.2 11 Q37.4 8.8 34.75 7.55 Q32.1 6.3 28.6 6.3 Q25.1 6.3 22.35 7.55 Q19.6 8.8 17.75 10.9 Q15.9 13 14.9 15.9 Q13.9 18.8 13.9 22.1 Q13.9 25.4 14.85 28.35 Q15.8 31.3 17.7 33.45 Q19.6 35.6 22.3 36.85 Q25 38.1 28.6 38.1 Z"
        /><glyph unicode="7" horiz-adv-x="55.6" d="M50.9 62.4 L50.9 69.7 L5 69.7 L5 61.7 L42.2 61.7 Q36.6 55.8 31.75 48.8 Q26.9 41.8 23.2 33.95 Q19.5 26.1 17.15 17.55 Q14.8 9 14.2 0 L23.7 0 Q24.2 8.3 26.5 17.1 Q28.8 25.9 32.45 34.2 Q36.1 42.5 40.8 49.8 Q45.5 57.1 50.9 62.4 Z"
        /><glyph unicode="8" horiz-adv-x="55.6" d="M15.5 52.5 Q15.5 55.2 16.5 57.2 Q17.5 59.2 19.15 60.6 Q20.8 62 23.1 62.7 Q25.4 63.4 27.9 63.4 Q33.1 63.4 36.45 60.65 Q39.8 57.9 39.8 52.5 Q39.8 47.1 36.5 44.1 Q33.2 41.1 28.1 41.1 Q25.5 41.1 23.2 41.8 Q20.9 42.5 19.2 43.9 Q17.5 45.3 16.5 47.45 Q15.5 49.6 15.5 52.5 ZM6.5 52.8 Q6.5 48 9.2 43.95 Q11.9 39.9 16.4 38.1 Q10.4 36 7.2 31.35 Q4 26.7 4 20.4 Q4 15 5.85 10.95 Q7.7 6.9 10.95 4.2 Q14.2 1.5 18.6 0.2 Q23 -1.1 28.1 -1.1 Q33 -1.1 37.3 0.3 Q41.6 1.7 44.75 4.45 Q47.9 7.2 49.75 11.2 Q51.6 15.2 51.6 20.4 Q51.6 27 48.5 31.55 Q45.4 36.1 39 38.1 Q43.5 40.1 46.15 44.05 Q48.8 48 48.8 52.8 Q48.8 56.2 47.6 59.45 Q46.4 62.7 43.85 65.25 Q41.3 67.8 37.2 69.35 Q33.1 70.9 27.3 70.9 Q23.2 70.9 19.45 69.7 Q15.7 68.5 12.8 66.2 Q9.9 63.9 8.2 60.55 Q6.5 57.2 6.5 52.8 ZM13 20 Q13 23.1 14.15 25.6 Q15.3 28.1 17.35 29.9 Q19.4 31.7 22.15 32.65 Q24.9 33.6 28 33.6 Q31 33.6 33.65 32.55 Q36.3 31.5 38.3 29.7 Q40.3 27.9 41.45 25.45 Q42.6 23 42.6 20.1 Q42.6 17.1 41.55 14.6 Q40.5 12.1 38.55 10.25 Q36.6 8.4 33.95 7.35 Q31.3 6.3 28.1 6.3 Q21.5 6.3 17.25 9.95 Q13 13.6 13 20 Z"
        /><glyph unicode="9" horiz-adv-x="55.6" d="M13.4 17.1 L4.9 17.1 Q5.7 7.9 11.6 3.4 Q17.5 -1.1 26.4 -1.1 Q39.3 -1.1 45.15 8.75 Q51 18.6 51 37 Q51 47.1 49.05 53.65 Q47.1 60.2 43.8 64 Q40.5 67.8 36.1 69.35 Q31.7 70.9 26.7 70.9 Q21.6 70.9 17.3 69.2 Q13 67.5 9.9 64.45 Q6.8 61.4 5.1 57.15 Q3.4 52.9 3.4 47.8 Q3.4 42.6 4.85 38.2 Q6.3 33.8 9.15 30.7 Q12 27.6 16.2 25.85 Q20.4 24.1 25.8 24.1 Q31 24.1 35.4 26.75 Q39.8 29.4 42.2 33.9 L42.4 33.7 Q42 19.8 38.1 13.05 Q34.2 6.3 26.4 6.3 Q21.3 6.3 17.6 9.1 Q13.9 11.9 13.4 17.1 ZM40.9 47.2 Q40.9 44.1 39.9 41.25 Q38.9 38.4 37 36.25 Q35.1 34.1 32.4 32.85 Q29.7 31.6 26.4 31.6 Q23.3 31.6 20.75 32.85 Q18.2 34.1 16.35 36.2 Q14.5 38.3 13.45 41 Q12.4 43.7 12.4 46.6 Q12.4 49.9 13.15 52.9 Q13.9 55.9 15.55 58.25 Q17.2 60.6 19.85 62 Q22.5 63.4 26.3 63.4 Q29.9 63.4 32.6 62.1 Q35.3 60.8 37.15 58.55 Q39 56.3 39.95 53.4 Q40.9 50.5 40.9 47.2 Z"
        /><glyph unicode="-" horiz-adv-x="38.9" d="M5 31.8 L5 23.8 L33.9 23.8 L33.9 31.8 Z"
      /></font
    ></defs
    ><g style="fill:white; stroke:white;"
    ><rect x="0" y="0" width="560" style="clip-path:url(#clipPath1); stroke:none;" height="420"
    /></g
    ><g style="fill:white; text-rendering:optimizeSpeed; color-rendering:optimizeSpeed; image-rendering:optimizeSpeed; shape-rendering:crispEdges; stroke:white; color-interpolation:sRGB;"
    ><rect x="0" width="560" height="420" y="0" style="stroke:none;"
      /><path style="stroke:none;" d="M73 374 L507 374 L507 31 L73 31 Z"
    /></g
    ><g style="fill:rgb(38,38,38); text-rendering:geometricPrecision; image-rendering:optimizeQuality; color-rendering:optimizeQuality; stroke-linejoin:round; stroke:rgb(38,38,38); color-interpolation:linearRGB; stroke-width:0.5;"
    ><line y2="374" style="fill:none;" x1="73" x2="507" y1="374"
      /><line y2="31" style="fill:none;" x1="73" x2="507" y1="31"
      /><line y2="369.66" style="fill:none;" x1="73" x2="73" y1="374"
      /><line y2="369.66" style="fill:none;" x1="116.4" x2="116.4" y1="374"
      /><line y2="369.66" style="fill:none;" x1="159.8" x2="159.8" y1="374"
      /><line y2="369.66" style="fill:none;" x1="203.2" x2="203.2" y1="374"
      /><line y2="369.66" style="fill:none;" x1="246.6" x2="246.6" y1="374"
      /><line y2="369.66" style="fill:none;" x1="290" x2="290" y1="374"
      /><line y2="369.66" style="fill:none;" x1="333.4" x2="333.4" y1="374"
      /><line y2="369.66" style="fill:none;" x1="376.8" x2="376.8" y1="374"
      /><line y2="369.66" style="fill:none;" x1="420.2" x2="420.2" y1="374"
      /><line y2="369.66" style="fill:none;" x1="463.6" x2="463.6" y1="374"
      /><line y2="369.66" style="fill:none;" x1="507" x2="507" y1="374"
      /><line y2="35.34" style="fill:none;" x1="73" x2="73" y1="31"
      /><line y2="35.34" style="fill:none;" x1="116.4" x2="116.4" y1="31"
      /><line y2="35.34" style="fill:none;" x1="159.8" x2="159.8" y1="31"
      /><line y2="35.34" style="fill:none;" x1="203.2" x2="203.2" y1="31"
      /><line y2="35.34" style="fill:none;" x1="246.6" x2="246.6" y1="31"
      /><line y2="35.34" style="fill:none;" x1="290" x2="290" y1="31"
      /><line y2="35.34" style="fill:none;" x1="333.4" x2="333.4" y1="31"
      /><line y2="35.34" style="fill:none;" x1="376.8" x2="376.8" y1="31"
      /><line y2="35.34" style="fill:none;" x1="420.2" x2="420.2" y1="31"
      /><line y2="35.34" style="fill:none;" x1="463.6" x2="463.6" y1="31"
      /><line y2="35.34" style="fill:none;" x1="507" x2="507" y1="31"
    /></g
    ><g transform="translate(73,378)" style="font-size:10px; fill:rgb(38,38,38); text-rendering:geometricPrecision; image-rendering:optimizeQuality; color-rendering:optimizeQuality; font-family:'Helvetica Neue'; stroke:rgb(38,38,38); color-interpolation:linearRGB;"
    ><text x="-3" xml:space="preserve" y="10" style="stroke:none;"
      >0</text
    ></g
    ><g transform="translate(116.4,378)" style="font-size:10px; fill:rgb(38,38,38); text-rendering:geometricPrecision; image-rendering:optimizeQuality; color-rendering:optimizeQuality; font-family:'Helvetica Neue'; stroke:rgb(38,38,38); color-interpolation:linearRGB;"
    ><text x="-6" xml:space="preserve" y="10" style="stroke:none;"
      >10</text
    ></g
    ><g transform="translate(159.8,378)" style="font-size:10px; fill:rgb(38,38,38); text-rendering:geometricPrecision; image-rendering:optimizeQuality; color-rendering:optimizeQuality; font-family:'Helvetica Neue'; stroke:rgb(38,38,38); color-interpolation:linearRGB;"
    ><text x="-6" xml:space="preserve" y="10" style="stroke:none;"
      >20</text
    ></g
    ><g transform="translate(203.2,378)" style="font-size:10px; fill:rgb(38,38,38); text-rendering:geometricPrecision; image-rendering:optimizeQuality; color-rendering:optimizeQuality; font-family:'Helvetica Neue'; stroke:rgb(38,38,38); color-interpolation:linearRGB;"
    ><text x="-6" xml:space="preserve" y="10" style="stroke:none;"
      >30</text
    ></g
    ><g transform="translate(246.6,378)" style="font-size:10px; fill:rgb(38,38,38); text-rendering:geometricPrecision; image-rendering:optimizeQuality; color-rendering:optimizeQuality; font-family:'Helvetica Neue'; stroke:rgb(38,38,38); color-interpolation:linearRGB;"
    ><text x="-6" xml:space="preserve" y="10" style="stroke:none;"
      >40</text
    ></g
    ><g transform="translate(290,378)" style="font-size:10px; fill:rgb(38,38,38); text-rendering:geometricPrecision; image-rendering:optimizeQuality; color-rendering:optimizeQuality; font-family:'Helvetica Neue'; stroke:rgb(38,38,38); color-interpolation:linearRGB;"
    ><text x="-6" xml:space="preserve" y="10" style="stroke:none;"
      >50</text
    ></g
    ><g transform="translate(333.4,378)" style="font-size:10px; fill:rgb(38,38,38); text-rendering:geometricPrecision; image-rendering:optimizeQuality; color-rendering:optimizeQuality; font-family:'Helvetica Neue'; stroke:rgb(38,38,38); color-interpolation:linearRGB;"
    ><text x="-6" xml:space="preserve" y="10" style="stroke:none;"
      >60</text
    ></g
    ><g transform="translate(376.8,378)" style="font-size:10px; fill:rgb(38,38,38); text-rendering:geometricPrecision; image-rendering:optimizeQuality; color-rendering:optimizeQuality; font-family:'Helvetica Neue'; stroke:rgb(38,38,38); color-interpolation:linearRGB;"
    ><text x="-6" xml:space="preserve" y="10" style="stroke:none;"
      >70</text
    ></g
    ><g transform="translate(420.2,378)" style="font-size:10px; fill:rgb(38,38,38); text-rendering:geometricPrecision; image-rendering:optimizeQuality; color-rendering:optimizeQuality; font-family:'Helvetica Neue'; stroke:rgb(38,38,38); color-interpolation:linearRGB;"
    ><text x="-6" xml:space="preserve" y="10" style="stroke:none;"
      >80</text
    ></g
    ><g transform="translate(463.6,378)" style="font-size:10px; fill:rgb(38,38,38); text-rendering:geometricPrecision; image-rendering:optimizeQuality; color-rendering:optimizeQuality; font-family:'Helvetica Neue'; stroke:rgb(38,38,38); color-interpolation:linearRGB;"
    ><text x="-6" xml:space="preserve" y="10" style="stroke:none;"
      >90</text
    ></g
    ><g transform="translate(507,378)" style="font-size:10px; fill:rgb(38,38,38); text-rendering:geometricPrecision; image-rendering:optimizeQuality; color-rendering:optimizeQuality; font-family:'Helvetica Neue'; stroke:rgb(38,38,38); color-interpolation:linearRGB;"
    ><text x="-8.5" xml:space="preserve" y="10" style="stroke:none;"
      >100</text
    ></g
    ><g style="fill:rgb(38,38,38); text-rendering:geometricPrecision; image-rendering:optimizeQuality; color-rendering:optimizeQuality; stroke-linejoin:round; stroke:rgb(38,38,38); color-interpolation:linearRGB; stroke-width:0.5;"
    ><line y2="31" style="fill:none;" x1="73" x2="73" y1="374"
      /><line y2="31" style="fill:none;" x1="507" x2="507" y1="374"
      /><line y2="374" style="fill:none;" x1="73" x2="77.34" y1="374"
      /><line y2="325" style="fill:none;" x1="73" x2="77.34" y1="325"
      /><line y2="276" style="fill:none;" x1="73" x2="77.34" y1="276"
      /><line y2="227" style="fill:none;" x1="73" x2="77.34" y1="227"
      /><line y2="178" style="fill:none;" x1="73" x2="77.34" y1="178"
      /><line y2="129" style="fill:none;" x1="73" x2="77.34" y1="129"
      /><line y2="80" style="fill:none;" x1="73" x2="77.34" y1="80"
      /><line y2="31" style="fill:none;" x1="73" x2="77.34" y1="31"
      /><line y2="374" style="fill:none;" x1="507" x2="502.66" y1="374"
      /><line y2="325" style="fill:none;" x1="507" x2="502.66" y1="325"
      /><line y2="276" style="fill:none;" x1="507" x2="502.66" y1="276"
      /><line y2="227" style="fill:none;" x1="507" x2="502.66" y1="227"
      /><line y2="178" style="fill:none;" x1="507" x2="502.66" y1="178"
      /><line y2="129" style="fill:none;" x1="507" x2="502.66" y1="129"
      /><line y2="80" style="fill:none;" x1="507" x2="502.66" y1="80"
      /><line y2="31" style="fill:none;" x1="507" x2="502.66" y1="31"
    /></g
    ><g transform="translate(69,374)" style="font-size:10px; fill:rgb(38,38,38); text-rendering:geometricPrecision; image-rendering:optimizeQuality; color-rendering:optimizeQuality; font-family:'Helvetica Neue'; stroke:rgb(38,38,38); color-interpolation:linearRGB;"
    ><text x="-21" xml:space="preserve" y="3.5" style="stroke:none;"
      >-400</text
    ></g
    ><g transform="translate(69,325)" style="font-size:10px; fill:rgb(38,38,38); text-rendering:geometricPrecision; image-rendering:optimizeQuality; color-rendering:optimizeQuality; font-family:'Helvetica Neue'; stroke:rgb(38,38,38); color-interpolation:linearRGB;"
    ><text x="-21" xml:space="preserve" y="3.5" style="stroke:none;"
      >-350</text
    ></g
    ><g transform="translate(69,276)" style="font-size:10px; fill:rgb(38,38,38); text-rendering:geometricPrecision; image-rendering:optimizeQuality; color-rendering:optimizeQuality; font-family:'Helvetica Neue'; stroke:rgb(38,38,38); color-interpolation:linearRGB;"
    ><text x="-21" xml:space="preserve" y="3.5" style="stroke:none;"
      >-300</text
    ></g
    ><g transform="translate(69,227)" style="font-size:10px; fill:rgb(38,38,38); text-rendering:geometricPrecision; image-rendering:optimizeQuality; color-rendering:optimizeQuality; font-family:'Helvetica Neue'; stroke:rgb(38,38,38); color-interpolation:linearRGB;"
    ><text x="-21" xml:space="preserve" y="3.5" style="stroke:none;"
      >-250</text
    ></g
    ><g transform="translate(69,178)" style="font-size:10px; fill:rgb(38,38,38); text-rendering:geometricPrecision; image-rendering:optimizeQuality; color-rendering:optimizeQuality; font-family:'Helvetica Neue'; stroke:rgb(38,38,38); color-interpolation:linearRGB;"
    ><text x="-21" xml:space="preserve" y="3.5" style="stroke:none;"
      >-200</text
    ></g
    ><g transform="translate(69,129)" style="font-size:10px; fill:rgb(38,38,38); text-rendering:geometricPrecision; image-rendering:optimizeQuality; color-rendering:optimizeQuality; font-family:'Helvetica Neue'; stroke:rgb(38,38,38); color-interpolation:linearRGB;"
    ><text x="-21" xml:space="preserve" y="3.5" style="stroke:none;"
      >-150</text
    ></g
    ><g transform="translate(69,80)" style="font-size:10px; fill:rgb(38,38,38); text-rendering:geometricPrecision; image-rendering:optimizeQuality; color-rendering:optimizeQuality; font-family:'Helvetica Neue'; stroke:rgb(38,38,38); color-interpolation:linearRGB;"
    ><text x="-21" xml:space="preserve" y="3.5" style="stroke:none;"
      >-100</text
    ></g
    ><g transform="translate(69,31)" style="font-size:10px; fill:rgb(38,38,38); text-rendering:geometricPrecision; image-rendering:optimizeQuality; color-rendering:optimizeQuality; font-family:'Helvetica Neue'; stroke:rgb(38,38,38); color-interpolation:linearRGB;"
    ><text x="-16" xml:space="preserve" y="3.5" style="stroke:none;"
      >-50</text
    ></g
    ><g style="stroke-linecap:butt; fill:blue; text-rendering:geometricPrecision; image-rendering:optimizeQuality; color-rendering:optimizeQuality; stroke-linejoin:round; stroke:blue; color-interpolation:linearRGB; stroke-width:0.5;"
    ><path d="M77.34 338.2023 L81.68 242.8176 L86.02 239.6955 L90.36 235.7357 L94.7 230.3698 L99.04 223.2849 L103.38 215.2091 L107.72 207.3855 L112.06 201.8171 L116.4 198.5263 L120.74 196.5431 L125.08 195.063 L129.42 193.7345 L133.76 192.4343 L138.1 191.0806 L142.44 189.5792 L146.78 187.8374 L151.12 185.8787 L155.46 183.956 L159.8 182.2984 L164.14 180.8573 L168.48 179.472 L172.82 178.0404 L177.16 176.5282 L181.5 174.8687 L185.84 173.0366 L190.18 171.0636 L194.52 169.1544 L198.86 167.7104 L203.2 166.5524 L207.54 165.4176 L211.88 164.2365 L216.22 162.9664 L220.56 161.6398 L224.9 160.326 L229.24 159.0826 L233.58 157.9255 L237.92 156.696 L242.26 155.211 L246.6 153.6086 L250.94 151.9832 L255.28 150.0673 L259.62 148.0228 L263.96 146.3135 L268.3 144.9762 L272.64 143.6897 L276.98 142.3493 L281.32 141.2777 L285.66 140.215 L290 138.7454 L294.34 136.8696 L298.68 134.7516 L303.02 132.0411 L307.36 129.033 L311.7 125.6015 L316.04 123.6792 L320.38 121.9809 L324.72 118.5114 L329.06 113.2536 L333.4 110.3584 L337.74 107.7331 L342.08 104.4044 L346.42 99.429 L350.76 95.9836 L355.1 94.4161 L359.44 92.7808 L363.78 91.2388 L368.12 90.2697 L372.46 89.7254 L376.8 88.7542 L381.14 84.2182 L385.48 83.308 L389.82 83.1521 L394.16 83.0785 L398.5 83.0392 L402.84 83.0173 L407.18 83.0045 L411.52 82.9959 L415.86 82.9853 L420.2 82.947 L424.54 82.6597 L428.88 80.9258 L433.22 78.9433 L437.56 78.7876 L441.9 78.737 L446.24 78.7203 L450.58 78.7157 L454.92 78.7154 L459.26 78.7166 L463.6 78.7183 L467.94 78.7199 L472.28 78.7213 L476.62 78.7226 L480.96 78.7237 L485.3 78.7246 L489.64 78.7253 L493.98 78.7259 L498.32 78.7264 L502.66 78.7268 L507 78.7271" style="fill:none; fill-rule:evenodd;"
    /></g
  ></g
></svg
>
